E:\Workspace\Eclipse\spring-microservices\product-service\src\main\java\com\vnpt\product\service\ProductService.java
E:\Workspace\Eclipse\spring-microservices\product-service\src\main\java\com\vnpt\product\controller\ProductController.java
E:\Workspace\Eclipse\spring-microservices\product-service\src\main\java\com\vnpt\product\repository\ProductRepository.java
E:\Workspace\Eclipse\spring-microservices\product-service\src\main\java\com\vnpt\product\ProductApplication.java
E:\Workspace\Eclipse\spring-microservices\product-service\src\main\java\com\vnpt\product\domain\Product.java
